…
#### Tabela de Dados

``` r
tab_pane %>% filter(ano >= 2010, ano <= 2020)
#> # A tibble: 85 x 4
#> # Groups:   ano [11]
#>      ano etapa_ensino                       qt_alunos_pnae vl_total_escolas
#>    <dbl> <chr>                                       <dbl>            <dbl>
#>  1  2010 CRECHE                                     423183         49824792
#>  2  2010 EDUCAÇÃO DE JOVENS E ADULTOS (EJA)         250229         25060294
#>  3  2010 ENSINO FUNDAMENTAL                        2477697        817556272
#>  4  2010 ENSINO MÉDIO                                36920         19336626
#>  5  2010 INDÍGENA                                      541            66120
#>  6  2010 PRÉ-ESCOLA                                 931977        228192908
#>  7  2010 QUILOMBOLA                                    968           165720
#>  8  2011 CRECHE                                     476833         56876772
#>  9  2011 EDUCAÇÃO DE JOVENS E ADULTOS (EJA)         230611         24913236
#> 10  2011 ENSINO FUNDAMENTAL                        2448374        222912870
#> # i 75 more rows
```
…
``` r
data_set <- left_join(data_set, sisvan, by = c("ano","nome"))
# data_set
```

### Visualização de dados

``` r
sisvan
#> # A tibble: 10,965 x 9
#> # Groups:   municipio [645]
#>    municipio    ano servico_nutricao_proprio servico_nutricao_terceirizado
#>    <chr>      <dbl>                    <int>                         <int>
#>  1 Adamantina  2006                       24                             0
#>  2 Adamantina  2007                       24                             0
#>  3 Adamantina  2008                       24                             0
#>  4 Adamantina  2009                       24                             0
#>  5 Adamantina  2010                       24                             0
#>  6 Adamantina  2011                       24                             0
#>  7 Adamantina  2012                       24                             0
#>  8 Adamantina  2013                       24                             0
#>  9 Adamantina  2014                       24                             0
#> 10 Adamantina  2015                       44                             0
#> # i 10,955 more rows
#> # i 5 more variables: servico_lactario_proprio <int>,
#> #   servico_lactario_terceirizado <int>, servico_banco_leite_proprio <int>,
#> #   servico_banco_leite_terceirizado <int>, nome <chr>
```
…
#### Tabela de Dados

``` r
sisvan_resumo 
#> # A tibble: 645 x 7
#>    nome              snutrip snutrit slacp slact sbleitep sbleitet
#>    <chr>               <dbl>   <dbl> <dbl> <dbl>    <dbl>    <dbl>
#>  1 Adamantina         46.1     0      0        0     15.3        0
#>  2 Adolfo              0       0      0        0      0          0
#>  3 Aguaí              10.2     0.412  5.47     0      0          0
#>  4 Agudos             12       0     12        0      0          0
#>  5 Alambari            0.647   0      0        0      0          0
#>  6 Alfredo Marcondes   0       0      0        0      0          0
#>  7 Altair              0       0      0        0      0          0
#>  8 Altinópolis        11.9     0      0        0      0          0
#>  9 Alto Alegre        12       0      0        0      0          0
#> 10 Alumínio            1.18    0      0        0      0          0
#> # i 635 more rows
```
…
